{
  "name": "Pregunta",
  "plural": "preguntas",
  "base": "PersistedModel",
  "idInjection": true,
  "options": {
    "validateUpsert": true
  },
  "properties": {
    "indice": {
      "type": "number",
      "required": true
    },
    "texto": {
      "type": "string",
      "required": true,
      "default": "¿?"
    },
    "opciones": {
      "type": "object",
      "required": true
    },
    "tipo": {
      "type": "string",
      "default": "simple"
    },
    "activa": {
      "type": "boolean",
      "default": true
    }
  },
  "validations": [],
  "relations": {},
  "acls": [
    {
      "accessType": "*",
      "principalType": "ROLE",
      "principalId": "$everyone",
      "permission": "DENY"
    },
    {
      "accessType": "WRITE",
      "principalType": "ROLE",
      "principalId": "admin",
      "permission": "ALLOW"
    },
    {
      "accessType": "*",
      "principalType": "ROLE",
      "principalId": "admin",
      "permission": "ALLOW",
      "property": "swap"
    },
    {
      "accessType": "READ",
      "principalType": "ROLE",
      "principalId": "$everyone",
      "permission": "ALLOW"
    }
  ],
  "methods": {}
}
