{
  "name": "Resultado",
  "plural": "resultados",
  "base": "PersistedModel",
  "idInjection": true,
  "options": {
    "validateUpsert": true
  },
  "properties": {
    "codigo": {
      "type": "string",
      "required": true
    },
    "respuestas": {
      "type": [
        "object"
      ],
      "required": true
    }
  },
  "validations": [],
  "relations": {},
  "acls": [],
  "methods": {}
}
